{"port":4444,"serverMessage":4444}{"port":4444,"serverMessage":"\"facebook"}
{"port":4444,"serverMessage":"\"web"}
{"port":4444,"serverMessage":"\"post"}
{"port":4444,"serverMessage":"\"be\b\b\b"}
{"port":4444,"serverMessage":"\"h\b"}
{"port":4444,"serverMessage":"\"circle"}
{"port":4444,"serverMessage":"\"hp"}
{"port":4444,"serverMessage":"\"russia"}
{"port":4444,"serverMessage":"\"en"}
{"port":4444,"serverMessage":"\"lotte"}
{"port":4444,"serverMessage":"\"connect"}
{"port":4444,"serverMessage":"\"gitlog"}
{"port":4444,"serverMessage":"\"render"}
{"port":4444,"serverMessage":"\"us"}
{"port":4444,"serverMessage":"\"\\l\b\b"}
{"port":4444,"serverMessage":"\"tueas\bs"}
{"port":4444,"serverMessage":"\"po"}
{"port":4444,"serverMessage":"\"linus"}
{"port":4444,"serverMessage":"\"kikai"}
{"port":4444,"serverMessage":"\"tech"}
{"port":4444,"serverMessage":"\"sharapova"}
{"port":4444,"serverMessage":"\"\\ping"}
{"port":4444,"serverMessage":"\"kio\b"}
{"port":4444,"serverMessage":"\"hello"}
{"port":4444,"serverMessage":"\"you"}